{
  "files": [
  "/home/eryalus/Escritorio/TFG/documents/asd.csv",
  "/home/eryalus/Escritorio/TFG/documents/asd1.csv",
  "/home/eryalus/Escritorio/TFG/documents/asd2.csv",
  "/home/eryalus/Escritorio/TFG/documents/asd3.csv",
  "/home/eryalus/Escritorio/TFG/documents/asd4.csv",
  "/home/eryalus/Escritorio/TFG/documents/asd5.csv"
  ]
}
